[RUNNING] basicopt1-hetianxing
Loaded: /usr/share/spim/exceptions.s
[Statistics]    All:    547042  Load:   136864  Store:  52425   Jumped: 37494
Yes
[RUNNING] board-5100379110-daibo
Loaded: /usr/share/spim/exceptions.s
[Statistics]    All:    26519   Load:   9883    Store:  4791    Jumped: 1467
Yes
[RUNNING] Bulgarian_solitaire-5110379024-wuhang
Loaded: /usr/share/spim/exceptions.s
[Statistics]    All:    1139159 Load:   351869  Store:  105052  Jumped: 112056
Yes
[RUNNING] expr-5110309085-jintianxing
Loaded: /usr/share/spim/exceptions.s
[Statistics]    All:    24732   Load:   12255   Store:  64      Jumped: 37
Yes
[RUNNING] factor-5090379042-jiaxiao
Loaded: /usr/share/spim/exceptions.s
[Statistics]    All:    219     Load:   50      Store:  32      Jumped: 30
Yes
[RUNNING] gcd-5090379042-jiaxiao
Loaded: /usr/share/spim/exceptions.s
[Statistics]    All:    392     Load:   75      Store:  39      Jumped: 62
Yes
[RUNNING] hanoi2-5100309153-yanghuan
Loaded: /usr/share/spim/exceptions.s
[Statistics]    All:    595841  Load:   126940  Store:  49140   Jumped: 77808
Yes
[RUNNING] hanoi-5100379110-daibo
Loaded: /usr/share/spim/exceptions.s
[Statistics]    All:    232806  Load:   49109   Store:  17397   Jumped: 25585
Yes
[RUNNING] hashmap-5100309127-hetianxing
Loaded: /usr/share/spim/exceptions.s
[Statistics]    All:    410746  Load:   131408  Store:  53408   Jumped: 43399
Yes
[RUNNING] heapsort-5100379110-daibo
Loaded: /usr/share/spim/exceptions.s
[Statistics]    All:    12719690        Load:   3726282 Store:  857633  Jumped: 508727
Yes
[RUNNING] hello-5090379042-jiaxiao
Loaded: /usr/share/spim/exceptions.s
[Statistics]    All:    27      Load:   3       Store:  3       Jumped: 4
Yes
[RUNNING] horse2-5100309153-yanghuan
Loaded: /usr/share/spim/exceptions.s
[Statistics]    All:    10122991        Load:   3769566 Store:  756423  Jumped: 772275
Yes
[RUNNING] horse3-5100309153-yanghuan
Loaded: /usr/share/spim/exceptions.s
[Statistics]    All:    12064708        Load:   4055247 Store:  1862154 Jumped: 981871
Yes
[RUNNING] horse-5100309153-yanghuan
Loaded: /usr/share/spim/exceptions.s
[Statistics]    All:    10502983        Load:   3026380 Store:  1851002 Jumped: 911979
Yes
[RUNNING] hpplus-5100309153-yanghuan
Loaded: /usr/share/spim/exceptions.s
[Statistics]    All:    3637    Load:   1007    Store:  339     Jumped: 469
Yes
[RUNNING] inlinecheck-5100309153-yanghuan
Loaded: /usr/share/spim/exceptions.s
[Statistics]    All:    261     Load:   47      Store:  33      Jumped: 45
Yes
[RUNNING] magic-5100309153-yanghuan
Loaded: /usr/share/spim/exceptions.s
[Statistics]    All:    1512076 Load:   406159  Store:  113155  Jumped: 92235
Yes
[RUNNING] manyarguments-5100379110-daibo
Loaded: /usr/share/spim/exceptions.s
[Statistics]    All:    631     Load:   121     Store:  55      Jumped: 102
Yes
[RUNNING] manymanyarguments-5100379110-daibo
Loaded: /usr/share/spim/exceptions.s
[Statistics]    All:    157     Load:   26      Store:  21      Jumped: 12
Yes
[RUNNING] maxflow-5100379110-daibo
Loaded: /usr/share/spim/exceptions.s
[Statistics]    All:    8830185 Load:   3036479 Store:  450252  Jumped: 818652
Yes
[RUNNING] multiarray-5100309153-yanghuan
Loaded: /usr/share/spim/exceptions.s
[Statistics]    All:    5529    Load:   1444    Store:  761     Jumped: 609
Yes
[RUNNING] nqueencon-5100379110-daibo
Loaded: /usr/share/spim/exceptions.s
[Statistics]    All:    13299   Load:   3564    Store:  2031    Jumped: 1535
Yes
[RUNNING] num1-5110379024-wuhang
Loaded: /usr/share/spim/exceptions.s
[Statistics]    All:    312     Load:   56      Store:  20      Jumped: 48
Yes
[RUNNING] pi-5090379042-jiaxiao
Loaded: /usr/share/spim/exceptions.s
[Statistics]    All:    12440727        Load:   3390607 Store:  1976612 Jumped: 848983
Yes
[RUNNING] plus-5100309153-yanghuan
Loaded: /usr/share/spim/exceptions.s
[Statistics]    All:    172     Load:   26      Store:  17      Jumped: 29
Yes
[RUNNING] prime2-5100309153-yanghuan
Loaded: /usr/share/spim/exceptions.s
[Statistics]    All:    3567612 Load:   1043575 Store:  439354  Jumped: 185308
Yes
[RUNNING] prime-5100309153-yanghuan
Loaded: /usr/share/spim/exceptions.s
[Statistics]    All:    3655848 Load:   1058713 Store:  419716  Jumped: 216220
Yes
[RUNNING] qsort-5100379110-daibo
Loaded: /usr/share/spim/exceptions.s
[Statistics]    All:    3048731 Load:   920336  Store:  259509  Jumped: 276787
Yes
[RUNNING] queenbitwise-5110379024-wuhang
Loaded: /usr/share/spim/exceptions.s
[Statistics]    All:    139243  Load:   49122   Store:  22637   Jumped: 10218
Yes
[RUNNING] queens-5100379110-daibo
Loaded: /usr/share/spim/exceptions.s
[Statistics]    All:    840860  Load:   263300  Store:  71753   Jumped: 60948
Yes
[RUNNING] self-5090379042-jiaxiao
Loaded: /usr/share/spim/exceptions.s
[Statistics]    All:    820     Load:   148     Store:  10      Jumped: 87
Yes
[RUNNING] selfref-5090379042-jiaxiao
Loaded: /usr/share/spim/exceptions.s
[Statistics]    All:    77      Load:   14      Store:  8       Jumped: 12
Yes
[RUNNING] spill2-5100379110-daibo
Loaded: /usr/share/spim/exceptions.s
[Statistics]    All:    30782   Load:   6921    Store:  3338    Jumped: 4616
Yes
[RUNNING] spill-5100379110-daibo
Loaded: /usr/share/spim/exceptions.s
[Statistics]    All:    3092    Load:   1062    Store:  778     Jumped: 52
Yes
[RUNNING] struct4-5110379024-wuhang
Loaded: /usr/share/spim/exceptions.s
[Statistics]    All:    374     Load:   64      Store:  25      Jumped: 59
Yes
[RUNNING] struct5-5110379024-wuhang
Loaded: /usr/share/spim/exceptions.s
[Statistics]    All:    76289   Load:   19609   Store:  9498    Jumped: 3545
Yes
[RUNNING] struct6-5100309127-hetianxing
Loaded: /usr/share/spim/exceptions.s
[Statistics]    All:    337     Load:   68      Store:  53      Jumped: 23
Yes
[RUNNING] superloop-5090379042-jiaxiao
Loaded: /usr/share/spim/exceptions.s
[Statistics]    All:    2232866 Load:   1145252 Store:  66059   Jumped: 93321
Yes
[RUNNING] tak-5090379042-jiaxiao
Loaded: /usr/share/spim/exceptions.s
[Statistics]    All:    2016097 Load:   606333  Store:  485064  Jumped: 166751
Yes
[RUNNING] treap-5110309085-jintianxing
Loaded: /usr/share/spim/exceptions.s
[Statistics]    All:    6249557 Load:   2080696 Store:  1003702 Jumped: 576115
Yes
[RUNNING] twinprime-5090379042-jiaxiao
Loaded: /usr/share/spim/exceptions.s
[Statistics]    All:    1165632 Load:   377434  Store:  118609  Jumped: 87434
Yes
[RUNNING] varptr-5100309127-hetianxing
Loaded: /usr/share/spim/exceptions.s
[Statistics]    All:    4724    Load:   1425    Store:  1066    Jumped: 451
Yes

